Statistical Computing in R: Comprehensive Review Notebook
…
data_factors <- tibble(
  category = sample(c("Low", "Medium", "High", "Very High"), 50, replace = TRUE),
  value = rnorm(50)
)

data_factors <- data_factors %>% 
  mutate(category = fct_relevel(category, "Low", "Medium", "High", "Very High"),
         category = fct_recode(category,
                               "Low" = "Low",
                               "Medium" = "Medium",
                               "High" = "High",
                               "VH" = "Very High"))
data_factors

# A tibble: 50 × 2
   category  value
   <fct>     <dbl>
 1 Low       0.585
 2 Medium    0.124
 3 Low       0.216
 4 Low       0.380
 5 High     -0.502
 6 Low      -0.333
 7 Medium   -1.02 
 8 Low      -1.07 
 9 High      0.304
10 Low       0.448
# ℹ 40 more rows
…
