Focused R4DS Topics Review Questions – Advanced Dataset
…
sales_data

# A tibble: 25 × 11
   transaction_id transaction_date transaction_time    customer product    
            <int> <date>           <dttm>              <chr>    <chr>      
 1              1 2023-05-01       2023-05-01 14:38:00 Diana    "Sprocket "
 2              2 2023-05-02       2023-05-02 18:52:00 Eddie    "Sprocket "
 3              3 2023-05-03       2023-05-03 13:11:00 Bob      "Doohickey"
 4              4 2023-05-04       2023-05-04 02:14:00 Alice    "Doohickey"
 5              5 2023-05-05       2023-05-05 09:31:00 Alice    "Gadget"   
 6              6 2023-05-06       2023-05-06 17:41:00 Charlie  "Doohickey"
 7              7 2023-05-07       2023-05-07 21:44:00 Alice    "Sprocket "
 8              8 2023-05-08       2023-05-08 10:06:00 Eddie    " Widget"  
 9              9 2023-05-09       2023-05-09 04:08:00 Alice    "Gadget"   
10             10 2023-05-10       2023-05-10 19:40:00 Bob      "Gadget"   
# ℹ 15 more rows
# ℹ 6 more variables: sales_amount <dbl>, quantity <int>, discount <dbl>,
#   region <fct>, payment_method <chr>, sale_status <chr>
…
advanced_data

# A tibble: 30 × 8
      id long_description           numeric_1 numeric_2 numeric_3 category group
   <int> <chr>                          <dbl>     <dbl>     <dbl> <chr>    <chr>
 1     1 A premium product that ex…      23.7      264.      99.1 C        East 
 2     2 A premium product that ex…      22.5      149.     127.  B        South
 3     3 An average item with stan…      31.0      221.      95.5 E        South
 4     4 An average item with stan…      51.9      326.     130.  F        South
 5     5 A premium product that ex…      33.9      208.      69.0 E        West 
 6     6 High-end model with advan…      87.2      100.     112.  C        East 
 7     7 Budget option that provid…      14.1      160.     102.  D        West 
 8     8 This product is excellent…      49.8      351.     104.  D        North
 9     9 An average item with stan…      81.9      238.     108.  F        South
10    10 A premium product that ex…      21.0      405.      90.0 D        North
# ℹ 20 more rows
# ℹ 1 more variable: transaction_date <date>
…
