Focused R4DS Topics Review Questions – Advanced Dataset
…
sales_data

# A tibble: 25 × 11
   transaction_id transaction_date transaction_time    customer product    
            <int> <date>           <dttm>              <chr>    <chr>      
 1              1 2023-05-01       2023-05-01 14:38:00 Diana    "Sprocket "
 2              2 2023-05-02       2023-05-02 18:52:00 Eddie    "Sprocket "
 3              3 2023-05-03       2023-05-03 13:11:00 Bob      "Doohickey"
 4              4 2023-05-04       2023-05-04 02:14:00 Alice    "Doohickey"
 5              5 2023-05-05       2023-05-05 09:31:00 Alice    "Gadget"   
 6              6 2023-05-06       2023-05-06 17:41:00 Charlie  "Doohickey"
 7              7 2023-05-07       2023-05-07 21:44:00 Alice    "Sprocket "
 8              8 2023-05-08       2023-05-08 10:06:00 Eddie    " Widget"  
 9              9 2023-05-09       2023-05-09 04:08:00 Alice    "Gadget"   
10             10 2023-05-10       2023-05-10 19:40:00 Bob      "Gadget"   
# ℹ 15 more rows
# ℹ 6 more variables: sales_amount <dbl>, quantity <int>, discount <dbl>,
#   region <fct>, payment_method <chr>, sale_status <chr>

Question 1

Modify the product column in sales_data so that all product names are converted to uppercase and any leading or trailing whitespace is removed.

sales_data %>%
  mutate(product = str_to_upper(str_trim(product)))

# A tibble: 25 × 11
   transaction_id transaction_date transaction_time    customer product  
            <int> <date>           <dttm>              <chr>    <chr>    
 1              1 2023-05-01       2023-05-01 14:38:00 Diana    SPROCKET 
 2              2 2023-05-02       2023-05-02 18:52:00 Eddie    SPROCKET 
 3              3 2023-05-03       2023-05-03 13:11:00 Bob      DOOHICKEY
 4              4 2023-05-04       2023-05-04 02:14:00 Alice    DOOHICKEY
 5              5 2023-05-05       2023-05-05 09:31:00 Alice    GADGET   
 6              6 2023-05-06       2023-05-06 17:41:00 Charlie  DOOHICKEY
 7              7 2023-05-07       2023-05-07 21:44:00 Alice    SPROCKET 
 8              8 2023-05-08       2023-05-08 10:06:00 Eddie    WIDGET   
 9              9 2023-05-09       2023-05-09 04:08:00 Alice    GADGET   
10             10 2023-05-10       2023-05-10 19:40:00 Bob      GADGET   
# ℹ 15 more rows
# ℹ 6 more variables: sales_amount <dbl>, quantity <int>, discount <dbl>,
#   region <fct>, payment_method <chr>, sale_status <chr>

Question 2

Use the wday function to extract the day of the week from the transaction_date column and add it to sales_data as a new column called day_of_week.

sales_data %>%
  mutate(day_of_week = wday(transaction_date))

# A tibble: 25 × 12
   transaction_id transaction_date transaction_time    customer product    
            <int> <date>           <dttm>              <chr>    <chr>      
 1              1 2023-05-01       2023-05-01 14:38:00 Diana    "Sprocket "
 2              2 2023-05-02       2023-05-02 18:52:00 Eddie    "Sprocket "
 3              3 2023-05-03       2023-05-03 13:11:00 Bob      "Doohickey"
 4              4 2023-05-04       2023-05-04 02:14:00 Alice    "Doohickey"
 5              5 2023-05-05       2023-05-05 09:31:00 Alice    "Gadget"   
 6              6 2023-05-06       2023-05-06 17:41:00 Charlie  "Doohickey"
 7              7 2023-05-07       2023-05-07 21:44:00 Alice    "Sprocket "
 8              8 2023-05-08       2023-05-08 10:06:00 Eddie    " Widget"  
 9              9 2023-05-09       2023-05-09 04:08:00 Alice    "Gadget"   
10             10 2023-05-10       2023-05-10 19:40:00 Bob      "Gadget"   
# ℹ 15 more rows
# ℹ 7 more variables: sales_amount <dbl>, quantity <int>, discount <dbl>,
#   region <fct>, payment_method <chr>, sale_status <chr>, day_of_week <dbl>
…
Question 4

Select and display only the columns from sales_data whose names contain the substring "time" (case-insensitive).

sales_data %>%
  select(contains("time"))

# A tibble: 25 × 1
   transaction_time   
   <dttm>             
 1 2023-05-01 14:38:00
 2 2023-05-02 18:52:00
 3 2023-05-03 13:11:00
 4 2023-05-04 02:14:00
 5 2023-05-05 09:31:00
 6 2023-05-06 17:41:00
 7 2023-05-07 21:44:00
 8 2023-05-08 10:06:00
 9 2023-05-09 04:08:00
10 2023-05-10 19:40:00
# ℹ 15 more rows

Question 5

Create a new column in sales_data called unit_price that calculates the price per unit (i.e. sales_amount divided by quantity).

sales_data %>%
  mutate(unit_price = sales_amount/quantity)

# A tibble: 25 × 12
   transaction_id transaction_date transaction_time    customer product    
            <int> <date>           <dttm>              <chr>    <chr>      
 1              1 2023-05-01       2023-05-01 14:38:00 Diana    "Sprocket "
 2              2 2023-05-02       2023-05-02 18:52:00 Eddie    "Sprocket "
 3              3 2023-05-03       2023-05-03 13:11:00 Bob      "Doohickey"
 4              4 2023-05-04       2023-05-04 02:14:00 Alice    "Doohickey"
 5              5 2023-05-05       2023-05-05 09:31:00 Alice    "Gadget"   
 6              6 2023-05-06       2023-05-06 17:41:00 Charlie  "Doohickey"
 7              7 2023-05-07       2023-05-07 21:44:00 Alice    "Sprocket "
 8              8 2023-05-08       2023-05-08 10:06:00 Eddie    " Widget"  
 9              9 2023-05-09       2023-05-09 04:08:00 Alice    "Gadget"   
10             10 2023-05-10       2023-05-10 19:40:00 Bob      "Gadget"   
# ℹ 15 more rows
# ℹ 7 more variables: sales_amount <dbl>, quantity <int>, discount <dbl>,
#   region <fct>, payment_method <chr>, sale_status <chr>, unit_price <dbl>
…
advanced_data

# A tibble: 30 × 8
      id long_description           numeric_1 numeric_2 numeric_3 category group
   <int> <chr>                          <dbl>     <dbl>     <dbl> <chr>    <chr>
 1     1 A premium product that ex…      23.7      264.      99.1 C        East 
 2     2 A premium product that ex…      22.5      149.     127.  B        South
 3     3 An average item with stan…      31.0      221.      95.5 E        South
 4     4 An average item with stan…      51.9      326.     130.  F        South
 5     5 A premium product that ex…      33.9      208.      69.0 E        West 
 6     6 High-end model with advan…      87.2      100.     112.  C        East 
 7     7 Budget option that provid…      14.1      160.     102.  D        West 
 8     8 This product is excellent…      49.8      351.     104.  D        North
 9     9 An average item with stan…      81.9      238.     108.  F        South
10    10 A premium product that ex…      21.0      405.      90.0 D        North
# ℹ 20 more rows
# ℹ 1 more variable: transaction_date <date>

Question 1

Update the long_description column by replacing all occurrences of the word “product” with “item” and ensure the resulting text is in sentence case (i.e., first letter uppercase and the rest lowercase).

advanced_data %>%
  mutate(long_description = str_to_sentence(str_replace_all(long_description,"product","item")))

# A tibble: 30 × 8
      id long_description           numeric_1 numeric_2 numeric_3 category group
   <int> <chr>                          <dbl>     <dbl>     <dbl> <chr>    <chr>
 1     1 A premium item that excee…      23.7      264.      99.1 C        East 
 2     2 A premium item that excee…      22.5      149.     127.  B        South
 3     3 An average item with stan…      31.0      221.      95.5 E        South
 4     4 An average item with stan…      51.9      326.     130.  F        South
 5     5 A premium item that excee…      33.9      208.      69.0 E        West 
 6     6 High-end model with advan…      87.2      100.     112.  C        East 
 7     7 Budget option that provid…      14.1      160.     102.  D        West 
 8     8 This item is excellent an…      49.8      351.     104.  D        North
 9     9 An average item with stan…      81.9      238.     108.  F        South
10    10 A premium item that excee…      21.0      405.      90.0 D        North
# ℹ 20 more rows
# ℹ 1 more variable: transaction_date <date>

Question 2

Extract the first three words from long_description and add them as a new column called short_summary.

advanced_data %>%
  mutate(short_summary = str_c(str_split(long_description," ")[[1]][1:3],collapse = " "))

# A tibble: 30 × 9
      id long_description           numeric_1 numeric_2 numeric_3 category group
   <int> <chr>                          <dbl>     <dbl>     <dbl> <chr>    <chr>
 1     1 A premium product that ex…      23.7      264.      99.1 C        East 
 2     2 A premium product that ex…      22.5      149.     127.  B        South
 3     3 An average item with stan…      31.0      221.      95.5 E        South
 4     4 An average item with stan…      51.9      326.     130.  F        South
 5     5 A premium product that ex…      33.9      208.      69.0 E        West 
 6     6 High-end model with advan…      87.2      100.     112.  C        East 
 7     7 Budget option that provid…      14.1      160.     102.  D        West 
 8     8 This product is excellent…      49.8      351.     104.  D        North
 9     9 An average item with stan…      81.9      238.     108.  F        South
10    10 A premium product that ex…      21.0      405.      90.0 D        North
# ℹ 20 more rows
# ℹ 2 more variables: transaction_date <date>, short_summary <chr>
…
Question 6

Recode the category column by lumping together all levels except for the most frequent one. The most frequent category should remain unchanged, and all other categories should be combined into “Other”.

advanced_data %>% 
  mutate(category = fct_lump(category, n = 1, other_level = "Other"))

# A tibble: 30 × 8
      id long_description           numeric_1 numeric_2 numeric_3 category group
   <int> <chr>                          <dbl>     <dbl>     <dbl> <fct>    <chr>
 1     1 A premium product that ex…      23.7      264.      99.1 Other    East 
 2     2 A premium product that ex…      22.5      149.     127.  Other    South
 3     3 An average item with stan…      31.0      221.      95.5 Other    South
 4     4 An average item with stan…      51.9      326.     130.  Other    South
 5     5 A premium product that ex…      33.9      208.      69.0 Other    West 
 6     6 High-end model with advan…      87.2      100.     112.  Other    East 
 7     7 Budget option that provid…      14.1      160.     102.  D        West 
 8     8 This product is excellent…      49.8      351.     104.  D        North
 9     9 An average item with stan…      81.9      238.     108.  Other    South
10    10 A premium product that ex…      21.0      405.      90.0 D        North
# ℹ 20 more rows
# ℹ 1 more variable: transaction_date <date>
…
advanced_data$largest_numeric <- apply(
  advanced_data[, c("numeric_1", "numeric_2", "numeric_3")],
  1,
  function(x) which.max(x)
)

# or 

advanced_data %>%
  rowwise() %>%                                   # Process each row individually
  mutate(largest_numeric = which.max(c(numeric_1, numeric_2, numeric_3))) %>%
  ungroup()    

# A tibble: 30 × 9
      id long_description           numeric_1 numeric_2 numeric_3 category group
   <int> <chr>                          <dbl>     <dbl>     <dbl> <chr>    <chr>
 1     1 A premium product that ex…      23.7      264.      99.1 C        East 
 2     2 A premium product that ex…      22.5      149.     127.  B        South
 3     3 An average item with stan…      31.0      221.      95.5 E        South
 4     4 An average item with stan…      51.9      326.     130.  F        South
 5     5 A premium product that ex…      33.9      208.      69.0 E        West 
 6     6 High-end model with advan…      87.2      100.     112.  C        East 
 7     7 Budget option that provid…      14.1      160.     102.  D        West 
 8     8 This product is excellent…      49.8      351.     104.  D        North
 9     9 An average item with stan…      81.9      238.     108.  F        South
10    10 A premium product that ex…      21.0      405.      90.0 D        North
# ℹ 20 more rows
# ℹ 2 more variables: transaction_date <date>, largest_numeric <int>
…
