Loops to Assemble Datasets
…
NFL in UT

Get the 2006 Sheet

try2006 <- read_excel("NFLinUT.xlsx", sheet = "2006")
try2006

# A tibble: 120 × 8
  date                time                network `home team`        
  <dttm>              <dttm>              <chr>   <chr>              
1 2006-08-06 00:00:00 1899-12-31 18:00:00 NBC     Philadelphia Eagles
2 2006-08-10 00:00:00 1899-12-31 18:00:00 FOX     St. Louis Rams     
3 2006-08-11 00:00:00 1899-12-31 18:00:00 CBS     Atlanta Falcons    
4 2006-08-13 00:00:00 1899-12-31 18:00:00 NBC     Cincinnati Bengals 
5 2006-08-14 00:00:00 1899-12-31 18:00:00 ESPN    Minnesota Vikings  
# ℹ 115 more rows
# ℹ 4 more variables: `visiting team` <chr>, Audience <dbl>,
#   line <dbl>, ou <dbl>
…
NFL in UT

Get the 2006 Sheet

try2006 <- read_excel("NFLinUT.xlsx", sheet = "2006")
try2006 <- try2006 |>
  mutate(season = 2006) |>
  mutate(date = make_datetime(year = year(date), month = month(date), day = day(date),
                              hour = hour(time), min = minute(time))) |>
  select(!time) |>
  select(season, date, everything())

try2006

# A tibble: 120 × 8
  season date                network `home team`       `visiting team`
   <dbl> <dttm>              <chr>   <chr>             <chr>          
1   2006 2006-08-06 18:00:00 NBC     Philadelphia Eag… Oakland Raiders
2   2006 2006-08-10 18:00:00 FOX     St. Louis Rams    Indianapolis C…
3   2006 2006-08-11 18:00:00 CBS     Atlanta Falcons   New England Pa…
4   2006 2006-08-13 18:00:00 NBC     Cincinnati Benga… Washington Red…
5   2006 2006-08-14 18:00:00 ESPN    Minnesota Vikings Oakland Raiders
# ℹ 115 more rows
# ℹ 3 more variables: Audience <dbl>, line <dbl>, ou <dbl>
…
  # add this sheet to the bottom of NFLinUT
  NFLinUT <- bind_rows(NFLinUT, this_sheet)
}

# create csv file for future work
write_csv(NFLinUT, "NFLinUT.csv")

# A tibble: 1,249 × 8
   season date                network `home team`      `visiting team`
    <dbl> <dttm>              <chr>   <chr>            <chr>          
 1   2002 2003-01-04 14:45:00 ABC     New York Jets    Indianapolis C…
 2   2002 2003-01-04 18:00:00 ABC     Green Bay Packe… Atlanta Falcons
 3   2002 2003-01-05 14:45:00 FOX     San Francisco 4… New York Giants
 4   2002 2003-01-05 11:00:00 CBS     Pittsburgh Stee… Cleveland Brow…
 5   2002 2003-01-11 18:15:00 FOX     Philadelphia Ea… Atlanta Falcons
 6   2002 2003-01-11 14:30:00 CBS     Tennessee Titans Pittsburgh Ste…
 7   2002 2003-01-12 11:00:00 FOX     Tampa Bay Bucca… San Francisco …
 8   2002 2003-01-12 14:45:00 CBS     Oakland Raiders  New York Jets  
 9   2002 2003-01-19 13:15:00 FOX     Philadelphia Ea… Tampa Bay Bucc…
10   2002 2003-01-19 16:45:00 CBS     Oakland Raiders  Tennessee Tita…
11   2002 2003-01-26 16:30:00 ABC     Tampa Bay Bucca… Oakland Raiders
12   2003 2003-08-02 18:00:00 ESPN    Tampa Bay Bucca… New York Jets  
13   2003 2003-08-07 18:00:00 ESPN    New England Pat… New York Giants
14   2003 2003-08-11 18:00:00 ESPN    New Orleans Sai… Philadelphia E…
15   2003 2003-08-14 18:15:00 FOX     San Francisco 4… Oakland Raiders
16   2003 2003-08-15 18:00:00 CBS     Cleveland Browns Green Bay Pack…
17   2003 2003-08-16 18:00:00 ESPN    Tennessee Titans Buffalo Bills  
18   2003 2003-08-17 18:00:00 ABC     St. Louis Rams   Tampa Bay Bucc…
19   2003 2003-08-21 18:00:00 FOX     Pittsburgh Stee… Dallas Cowboys 
20   2003 2003-08-22 18:00:00 CBS     Miami Dolphins   Atlanta Falcons
# ℹ 1,229 more rows
# ℹ 3 more variables: Audience <dbl>, line <dbl>, ou <dbl>
…
}

# create csv file for future work
write_csv(prices, "FoodPrices.csv")

# A tibble: 523 × 6
   DATE       chicken tomato banana icecream chips
   <date>       <dbl>  <dbl>  <dbl>    <dbl> <dbl>
 1 1980-01-01   1.06   0.703  0.319     1.76  1.98
 2 1980-02-01   1.02   0.586  0.345     1.78  1.99
 3 1980-03-01   0.985  0.642  0.355     1.72  2.00
 4 1980-04-01   0.967  0.634  0.353     1.77  2.01
 5 1980-05-01   0.985  0.737  0.357     1.82  2.01
 6 1980-06-01   1.00   0.745  0.348     1.83  2.02
 7 1980-07-01   1.07   0.683  0.332     1.83  2.01
 8 1980-08-01   1.13   0.646  0.335     1.87  2.05
 9 1980-09-01   1.16   0.679  0.335     1.82  2.04
10 1980-10-01   1.14   0.764  0.335     1.88  2.07
11 1980-11-01   1.13   0.603  0.339     1.88  2.14
12 1980-12-01   1.14   0.662  0.349     1.92  2.18
13 1981-01-01   1.15   0.792  0.343     1.94  2.20
14 1981-02-01   1.15   1.02   0.366     2.02  2.19
15 1981-03-01   1.13   1.17   0.377     1.99  2.23
16 1981-04-01   1.05   1.20   0.377     2.02  2.28
17 1981-05-01   1.10   0.607  0.379     2.01  2.27
18 1981-06-01   1.10   0.639  0.369     2.01  2.30
19 1981-07-01   1.16   0.614  0.341     2.02  2.26
20 1981-08-01   1.14   0.659  0.351     2.01  2.29
# ℹ 503 more rows
…
