Working With Multiple Datasets
…
Base R rbind()

# A tibble: 13 × 5
  Opponent      TVaud Where Network When    
  <chr>         <dbl> <chr> <chr>   <chr>   
1 South Florida    NA Away  ESPNU   Saturday
2 Baylor         2370 Home  ESPN    Saturday
3 Oregon         2580 Away  FOX     Saturday
# ℹ 10 more rows

# A tibble: 13 × 4
  Opponent      TVaud Where   Network
  <chr>         <dbl> <chr>   <chr>  
1 Arizona         933 Neutral ESPN   
2 Utah           1503 Home    ESPN   
3 Arizona State  1498 Home    ESPN   
# ℹ 10 more rows
…
doc <- read_csv("https://stats.idre.ucla.edu/stat/data/rdm/doctor_dm.csv")

doc

# A tibble: 40 × 5
   docid experience school  lawsuits medicaid
   <chr>      <dbl> <chr>      <dbl>    <dbl>
 1 1-1           25 average        3    0.606
 2 1-11          10 top            0    0.605
 3 1-21          21 average        3    0.483
 4 1-22          22 top            3    0.483
 5 1-33          16 top            0    0.584
 6 1-48          23 average        3    0.219
 7 1-57          21 average        1    0.405
 8 1-58          21 average        1    0.405
 9 1-72          24 average        4    0.522
10 1-73          14 average        1    0.522
# ℹ 30 more rows
…
