Grammar of Data Wrangling
…
Row Operations

Look at Country meaningful to you by name

Use Find <ctrl>F to search for rows

Column Operations

Look at how many Temples (ignoring other columns)

Sort / Arrange to find Most Wards

Church of Jesus Christ of Latter-day Saints Facts by Country

# A tibble: 187 × 13
  Country             Area           TemplesOpen TemplesConst TemplesAnnounced Temples Missions Districts
  <chr>               <chr>                <dbl>        <dbl>            <dbl>   <dbl>    <dbl>     <dbl>
1 Albania             Europe Central           0            0                0       0        1         1
2 American Samoa      Pacific                  0            1                0       1        0         0
3 Andorra[c]          Europe Central           0            0                0       0        0         0
4 Angola              Africa South             0            0                0       0        1         1
5 Antigua and Barbuda Caribbean                0            0                0       0        0         0
6 Argentina           SA South                 2            3                1       6       13        27
7 Armenia             Europe East              0            0                0       0        1         1
8 Aruba               Caribbean                0            0                0       0        0         1
  Stakes Wards Branches Congregations   FHC
   <dbl> <dbl>    <dbl>         <dbl> <dbl>
1      1     6        8            14     4
2      5    38        5            43     5
3      0     0        1             1     0
4      1     8       11            19     1
5      0     0        1             1     1
6     78   484      242           726   133
7      0     0        5             5     4
8      0     0        2             2     2
# ℹ 179 more rows

Row Operations

10 or more Missions

Go row-by-row through the dataset and ask Missions >= 10

If TRUE then keep the row

ChurchFacts
filter

# A tibble: 187 × 13
  Country             Area           TemplesOpen TemplesConst TemplesAnnounced Temples Missions Districts
  <chr>               <chr>                <dbl>        <dbl>            <dbl>   <dbl>    <dbl>     <dbl>
1 Albania             Europe Central           0            0                0       0        1         1
2 American Samoa      Pacific                  0            1                0       1        0         0
3 Andorra[c]          Europe Central           0            0                0       0        0         0
4 Angola              Africa South             0            0                0       0        1         1
5 Antigua and Barbuda Caribbean                0            0                0       0        0         0
6 Argentina           SA South                 2            3                1       6       13        27
7 Armenia             Europe East              0            0                0       0        1         1
8 Aruba               Caribbean                0            0                0       0        0         1
  Stakes Wards Branches Congregations   FHC
   <dbl> <dbl>    <dbl>         <dbl> <dbl>
1      1     6        8            14     4
2      5    38        5            43     5
3      0     0        1             1     0
4      1     8       11            19     1
5      0     0        1             1     1
6     78   484      242           726   133
7      0     0        5             5     4
8      0     0        2             2     2
# ℹ 179 more rows
…
Row Operations

More Temples Under Construction than Open

Go row-by-row through the dataset and ask TemplesConst > TemplesOpen

If TRUE then keep the row

ChurchFacts
filter

# A tibble: 187 × 13
  Country             Area           TemplesOpen TemplesConst TemplesAnnounced Temples Missions Districts
  <chr>               <chr>                <dbl>        <dbl>            <dbl>   <dbl>    <dbl>     <dbl>
1 Albania             Europe Central           0            0                0       0        1         1
2 American Samoa      Pacific                  0            1                0       1        0         0
3 Andorra[c]          Europe Central           0            0                0       0        0         0
4 Angola              Africa South             0            0                0       0        1         1
5 Antigua and Barbuda Caribbean                0            0                0       0        0         0
6 Argentina           SA South                 2            3                1       6       13        27
7 Armenia             Europe East              0            0                0       0        1         1
8 Aruba               Caribbean                0            0                0       0        0         1
  Stakes Wards Branches Congregations   FHC
   <dbl> <dbl>    <dbl>         <dbl> <dbl>
1      1     6        8            14     4
2      5    38        5            43     5
3      0     0        1             1     0
4      1     8       11            19     1
5      0     0        1             1     1
6     78   484      242           726   133
7      0     0        5             5     4
8      0     0        2             2     2
# ℹ 179 more rows
…
Column Operations

Only Ward and Branch Columns

Go column-by-column through the dataset and ask column name Wards or Branches

If TRUE then keep the column

ChurchFacts
select

# A tibble: 187 × 13
  Country             Area           TemplesOpen TemplesConst TemplesAnnounced Temples Missions Districts
  <chr>               <chr>                <dbl>        <dbl>            <dbl>   <dbl>    <dbl>     <dbl>
1 Albania             Europe Central           0            0                0       0        1         1
2 American Samoa      Pacific                  0            1                0       1        0         0
3 Andorra[c]          Europe Central           0            0                0       0        0         0
4 Angola              Africa South             0            0                0       0        1         1
5 Antigua and Barbuda Caribbean                0            0                0       0        0         0
6 Argentina           SA South                 2            3                1       6       13        27
7 Armenia             Europe East              0            0                0       0        1         1
8 Aruba               Caribbean                0            0                0       0        0         1
  Stakes Wards Branches Congregations   FHC
   <dbl> <dbl>    <dbl>         <dbl> <dbl>
1      1     6        8            14     4
2      5    38        5            43     5
3      0     0        1             1     0
4      1     8       11            19     1
5      0     0        1             1     1
6     78   484      242           726   133
7      0     0        5             5     4
8      0     0        2             2     2
# ℹ 179 more rows

ChurchFacts |>
  select(Wards, Branches)

# A tibble: 187 × 2
   Wards Branches
   <dbl>    <dbl>
 1     6        8
 2    38        5
 3     0        1
 4     8       11
 5     0        1
 6   484      242
 7     0        5
 8     0        2
 9   236       74
10    14        3
# ℹ 177 more rows

More Complex Data Wrangling

Focusing only on Family History, what Countries don’t have a Family History Center?

ChurchFacts |>
  filter(FHC == 0) |>
  select(Country)

# A tibble: 43 × 1
   Country                  
   <chr>                    
 1 Andorra[c]               
 2 Bahrain                  
 3 Bangladesh[d]            
 4 Bermuda[c]               
 5 Bosnia and Herzegovina   
 6 British Virgin Islands[c]
 7 Cayman Islands           
 8 Central African Republic 
 9 China(mainland) [e]      
10 Cuba[c]                  
# ℹ 33 more rows
…
More Complex Data Wrangling

Most Missions

ChurchFacts |>
  arrange(desc(Missions)) |>
  select(Country, Missions, Temples, Wards, Branches, everything())

# A tibble: 187 × 13
   Country       Missions Temples Wards Branches Area      TemplesOpen
   <chr>            <dbl>   <dbl> <dbl>    <dbl> <chr>           <dbl>
 1 United States      110     124 12806     1808 North Am…          82
 2 Brazil              36      20  1773      403 Brazil              9
 3 Mexico              32      23  1369      494 Mexico             13
 4 Philippines         23      12   791      481 Philippi…           2
 5 Peru                14       7   665      114 SA North…           3
 6 Argentina           13       6   484      242 SA South            2
 7 Chile               10       4   415      157 SA South            2
 8 Guatemala            7       6   297      142 Central …           2
 9 Nigeria              7       4   505      264 Africa W…           1
10 Canada               6      10   349      144 North Am…           9
# ℹ 177 more rows
# ℹ 6 more variables: TemplesConst <dbl>, TemplesAnnounced <dbl>,
#   Districts <dbl>, Stakes <dbl>, Congregations <dbl>, FHC <dbl>
…
ChurchFacts[, c(2, 6, 9 : 11)]

# A tibble: 187 × 5
   Area           Temples Stakes Wards Branches
   <chr>            <dbl>  <dbl> <dbl>    <dbl>
 1 Europe Central       0      1     6        8
 2 Pacific              1      5    38        5
 3 Europe Central       0      0     0        1
 4 Africa South         0      1     8       11
 5 Caribbean            0      0     0        1
 6 SA South             6     78   484      242
 7 Europe East          0      0     0        5
 8 Caribbean            0      0     0        2
 9 Pacific              5     41   236       74
10 Europe Central       1      2    14        3
# ℹ 177 more rows
…
Base R: Column Operations

Only Ward and Branch Columns

ChurchFacts[ ,c("Wards", "Branches")]

# A tibble: 187 × 2
   Wards Branches
   <dbl>    <dbl>
 1     6        8
 2    38        5
 3     0        1
 4     8       11
 5     0        1
 6   484      242
 7     0        5
 8     0        2
 9   236       74
10    14        3
# ℹ 177 more rows
…
